DATA608 - Module 1 R Notebook, Author - Peter Gatica
…
Question 3

Now imagine you work for an investor and want to see which industries generate the most revenue per employee. Create a chart that makes this information clear. Once again, the distribution per industry should be shown.

# Answer Question 3 here
# Get the average/mean of employment by Industry
inc_rev_emps <- aggregate(cbind(Revenue, Employees) ~ Industry, data=inc, FUN=sum)

inc_rev_by_emp <- group_by(inc_rev_emps, Industry, Revenue / Employees)

# rename columns
names(inc_rev_by_emp) <- c("Industry", "Revenue", "Employees" , "RevenuePerEmployee")
inc_rev_by_emp

## # A tibble: 25 x 4
## # Groups:   Industry, RevenuePerEmployee [25]
##    Industry                         Revenue Employees RevenuePerEmployee
##    <chr>                              <dbl>     <dbl>              <dbl>
##  1 Advertising & Marketing       7785000000     39731            195943.
##  2 Business Products & Services 26345900000    117357            224494.
##  3 Computer Hardware            11885700000      9714           1223564.
##  4 Construction                 13174300000     29099            452741.
##  5 Consumer Products & Services 14956400000     45464            328972.
##  6 Education                     1139300000      7685            148250.
##  7 Energy                       13771600000     26437            520921.
##  8 Engineering                   2532500000     20435            123930.
##  9 Environmental Services        2638800000     10155            259852.
## 10 Financial Services           13150900000     47693            275741.
## #  with 15 more rows
…
